^C:\USERS\ZE\DESKTOP\ZE PEDRO\ISEP\SGRAI\TETRIS3D-AGP\TETRIS3D-AGP\TETRIS3D\TETRIS3D\DEBUG\BLOCK.OBJ|C:\USERS\ZE\DESKTOP\ZE PEDRO\ISEP\SGRAI\TETRIS3D-AGP\TETRIS3D-AGP\TETRIS3D\TETRIS3D\DEBUG\BOARD.OBJ|C:\USERS\ZE\DESKTOP\ZE PEDRO\ISEP\SGRAI\TETRIS3D-AGP\TETRIS3D-AGP\TETRIS3D\TETRIS3D\DEBUG\CUBE.OBJ|C:\USERS\ZE\DESKTOP\ZE PEDRO\ISEP\SGRAI\TETRIS3D-AGP\TETRIS3D-AGP\TETRIS3D\TETRIS3D\DEBUG\GAME.OBJ
C:\WINDOWS\GLOBALIZATION\SORTING\SORTDEFAULT.NLS
C:\PROGRAM FILES (X86)\WINDOWS KITS\10\LIB\10.0.16299.0\UM\X86\KERNEL32.LIB
C:\PROGRAM FILES (X86)\WINDOWS KITS\10\LIB\10.0.16299.0\UM\X86\USER32.LIB
C:\PROGRAM FILES (X86)\WINDOWS KITS\10\LIB\10.0.16299.0\UM\X86\GDI32.LIB
C:\PROGRAM FILES (X86)\WINDOWS KITS\10\LIB\10.0.16299.0\UM\X86\WINSPOOL.LIB
C:\PROGRAM FILES (X86)\WINDOWS KITS\10\LIB\10.0.16299.0\UM\X86\COMDLG32.LIB
C:\PROGRAM FILES (X86)\WINDOWS KITS\10\LIB\10.0.16299.0\UM\X86\ADVAPI32.LIB
C:\PROGRAM FILES (X86)\WINDOWS KITS\10\LIB\10.0.16299.0\UM\X86\SHELL32.LIB
C:\PROGRAM FILES (X86)\WINDOWS KITS\10\LIB\10.0.16299.0\UM\X86\OLE32.LIB
C:\PROGRAM FILES (X86)\WINDOWS KITS\10\LIB\10.0.16299.0\UM\X86\OLEAUT32.LIB
C:\PROGRAM FILES (X86)\WINDOWS KITS\10\LIB\10.0.16299.0\UM\X86\UUID.LIB
C:\PROGRAM FILES (X86)\WINDOWS KITS\10\LIB\10.0.16299.0\UM\X86\ODBC32.LIB
C:\PROGRAM FILES (X86)\WINDOWS KITS\10\LIB\10.0.16299.0\UM\X86\ODBCCP32.LIB
C:\USERS\ZE\DESKTOP\ZE PEDRO\ISEP\SGRAI\TETRIS3D-AGP\TETRIS3D-AGP\TETRIS3D\TETRIS3D\DEBUG\CUBE.OBJ
C:\USERS\ZE\DESKTOP\ZE PEDRO\ISEP\SGRAI\TETRIS3D-AGP\TETRIS3D-AGP\TETRIS3D\TETRIS3D\DEBUG\GAME.OBJ
C:\USERS\ZE\DESKTOP\ZE PEDRO\ISEP\SGRAI\TETRIS3D-AGP\TETRIS3D-AGP\TETRIS3D\TETRIS3D\DEBUG\BOARD.OBJ
C:\USERS\ZE\DESKTOP\ZE PEDRO\ISEP\SGRAI\TETRIS3D-AGP\TETRIS3D-AGP\TETRIS3D\TETRIS3D\DEBUG\BLOCK.OBJ
C:\WINDOWS\SYSTEM32\TZRES.DLL
C:\PROGRAM FILES (X86)\MICROSOFT VISUAL STUDIO\2017\PROFESSIONAL\VC\TOOLS\MSVC\14.11.25503\LIB\X86\MSVCPRTD.LIB
C:\PROGRAM FILES (X86)\WINDOWS KITS\10\LIB\10.0.16299.0\UM\X86\WINMM.LIB
C:\PROGRAM FILES (X86)\WINDOWS KITS\10\LIB\10.0.16299.0\UM\X86\OPENGL32.LIB
C:\PROGRAM FILES (X86)\WINDOWS KITS\10\LIB\10.0.16299.0\UM\X86\GLU32.LIB
C:\GLUT\GLUT32.LIB
C:\PROGRAM FILES (X86)\MICROSOFT VISUAL STUDIO\2017\PROFESSIONAL\VC\TOOLS\MSVC\14.11.25503\LIB\X86\MSVCRTD.LIB
C:\PROGRAM FILES (X86)\MICROSOFT VISUAL STUDIO\2017\PROFESSIONAL\VC\TOOLS\MSVC\14.11.25503\LIB\X86\OLDNAMES.LIB
C:\PROGRAM FILES (X86)\MICROSOFT VISUAL STUDIO\2017\PROFESSIONAL\VC\TOOLS\MSVC\14.11.25503\LIB\X86\VCRUNTIMED.LIB
C:\PROGRAM FILES (X86)\WINDOWS KITS\10\LIB\10.0.16299.0\UCRT\X86\UCRTD.LIB
^C:\USERS\ZE\DESKTOP\ZE PEDRO\ISEP\SGRAI\FINAL_WORK\TETRIS3D_SGRAI\TETRIS3D\TETRIS3D\DEBUG\BLOCK.OBJ|C:\USERS\ZE\DESKTOP\ZE PEDRO\ISEP\SGRAI\FINAL_WORK\TETRIS3D_SGRAI\TETRIS3D\TETRIS3D\DEBUG\BOARD.OBJ|C:\USERS\ZE\DESKTOP\ZE PEDRO\ISEP\SGRAI\FINAL_WORK\TETRIS3D_SGRAI\TETRIS3D\TETRIS3D\DEBUG\CUBE.OBJ|C:\USERS\ZE\DESKTOP\ZE PEDRO\ISEP\SGRAI\FINAL_WORK\TETRIS3D_SGRAI\TETRIS3D\TETRIS3D\DEBUG\GAME.OBJ
C:\WINDOWS\GLOBALIZATION\SORTING\SORTDEFAULT.NLS
C:\PROGRAM FILES (X86)\WINDOWS KITS\10\LIB\10.0.16299.0\UM\X86\KERNEL32.LIB
C:\PROGRAM FILES (X86)\WINDOWS KITS\10\LIB\10.0.16299.0\UM\X86\USER32.LIB
C:\PROGRAM FILES (X86)\WINDOWS KITS\10\LIB\10.0.16299.0\UM\X86\GDI32.LIB
C:\PROGRAM FILES (X86)\WINDOWS KITS\10\LIB\10.0.16299.0\UM\X86\WINSPOOL.LIB
C:\PROGRAM FILES (X86)\WINDOWS KITS\10\LIB\10.0.16299.0\UM\X86\COMDLG32.LIB
C:\PROGRAM FILES (X86)\WINDOWS KITS\10\LIB\10.0.16299.0\UM\X86\ADVAPI32.LIB
C:\PROGRAM FILES (X86)\WINDOWS KITS\10\LIB\10.0.16299.0\UM\X86\SHELL32.LIB
C:\PROGRAM FILES (X86)\WINDOWS KITS\10\LIB\10.0.16299.0\UM\X86\OLE32.LIB
C:\PROGRAM FILES (X86)\WINDOWS KITS\10\LIB\10.0.16299.0\UM\X86\OLEAUT32.LIB
C:\PROGRAM FILES (X86)\WINDOWS KITS\10\LIB\10.0.16299.0\UM\X86\UUID.LIB
C:\PROGRAM FILES (X86)\WINDOWS KITS\10\LIB\10.0.16299.0\UM\X86\ODBC32.LIB
C:\PROGRAM FILES (X86)\WINDOWS KITS\10\LIB\10.0.16299.0\UM\X86\ODBCCP32.LIB
C:\USERS\ZE\DESKTOP\ZE PEDRO\ISEP\SGRAI\FINAL_WORK\TETRIS3D_SGRAI\TETRIS3D\TETRIS3D\DEBUG\CUBE.OBJ
C:\USERS\ZE\DESKTOP\ZE PEDRO\ISEP\SGRAI\FINAL_WORK\TETRIS3D_SGRAI\TETRIS3D\TETRIS3D\DEBUG\GAME.OBJ
C:\USERS\ZE\DESKTOP\ZE PEDRO\ISEP\SGRAI\FINAL_WORK\TETRIS3D_SGRAI\TETRIS3D\TETRIS3D\DEBUG\BOARD.OBJ
C:\USERS\ZE\DESKTOP\ZE PEDRO\ISEP\SGRAI\FINAL_WORK\TETRIS3D_SGRAI\TETRIS3D\TETRIS3D\DEBUG\BLOCK.OBJ
C:\PROGRAM FILES (X86)\MICROSOFT VISUAL STUDIO\2017\PROFESSIONAL\VC\TOOLS\MSVC\14.11.25503\BIN\HOSTX86\X86\1046\LINKUI.DLL
C:\PROGRAM FILES (X86)\MICROSOFT VISUAL STUDIO\2017\PROFESSIONAL\VC\TOOLS\MSVC\14.11.25503\LIB\X86\MSVCPRTD.LIB
C:\PROGRAM FILES (X86)\WINDOWS KITS\10\LIB\10.0.16299.0\UM\X86\WINMM.LIB
C:\PROGRAM FILES (X86)\WINDOWS KITS\10\LIB\10.0.16299.0\UM\X86\OPENGL32.LIB
C:\PROGRAM FILES (X86)\WINDOWS KITS\10\LIB\10.0.16299.0\UM\X86\GLU32.LIB
C:\GLUT\GLUT32.LIB
C:\PROGRAM FILES (X86)\MICROSOFT VISUAL STUDIO\2017\PROFESSIONAL\VC\TOOLS\MSVC\14.11.25503\LIB\X86\MSVCRTD.LIB
C:\PROGRAM FILES (X86)\MICROSOFT VISUAL STUDIO\2017\PROFESSIONAL\VC\TOOLS\MSVC\14.11.25503\LIB\X86\OLDNAMES.LIB
C:\PROGRAM FILES (X86)\MICROSOFT VISUAL STUDIO\2017\PROFESSIONAL\VC\TOOLS\MSVC\14.11.25503\LIB\X86\VCRUNTIMED.LIB
C:\PROGRAM FILES (X86)\WINDOWS KITS\10\LIB\10.0.16299.0\UCRT\X86\UCRTD.LIB
C:\PROGRAM FILES (X86)\WINDOWS KITS\10\BIN\10.0.16299.0\X86\RC.EXE
C:\PROGRAM FILES (X86)\MICROSOFT VISUAL STUDIO\2017\PROFESSIONAL\VC\TOOLS\MSVC\14.11.25503\BIN\HOSTX86\X86\CVTRES.EXE
C:\WINDOWS\SYSTEM32\TZRES.DLL
